n, procs, time, speedup, efficiency, memory
1, 1, 69.1857, 1, 1, 16.317
2, 2, -1, -69.1857, -34.59285, -1
3, 4, -1, -69.1857, -17.296425, -1
4, 8, -1, -69.1857, -8.6482125, -1
5, 12, -1, -69.1857, -5.765475, -1
6, 24, 7.71544, 8.96717491160582, 0.3736322879835758333333333333333333333333, 16.536
7, 36, 5.45144, 12.6912705633741, 0.3525352934270583333333333333333333333333, 17.031
8, 48, 5.5726, 12.4153357499192, 0.2586528281233166666666666666666666666667, 16.892
9, 60, 3.99516, 17.3173790286246, 0.28862298381041, 17.602
10, 72, 5.44464, 12.7071211319757, 0.1764877934996625, 17.227
