procs, time, speedup, efficiency, memory
1, 16.6618, 1, 1, 3.073
4, 7.15444, 2.3288754954965, 0.582218873874125, 3.083
8, 4.79636, 3.47384266402022, 0.4342303330025275, 3.087
12, 4.67353, 3.56514240841505, 0.2970952007012541666666666666666666666667, 4.078
16, 3.91692, 4.25380145624623, 0.265862591015389375, 3.113
20, 3.74492, 4.44917381412687, 0.2224586907063435, 3.629
24, 5.5563, 2.99872217122906, 0.1249467571345441666666666666666666666667, 4.134
